{
  "images" : [
    {
      "idiom" : "universal",
      "filename" : "icon_ManageAdmin_Selected.png",
      "scale" : "1x"
    },
    {
      "idiom" : "universal",
      "filename" : "icon_ManageAdmin_Selected@2x.png",
      "scale" : "2x"
    },
    {
      "idiom" : "universal",
      "filename" : "icon_ManageAdmin_Selected@3x.png",
      "scale" : "3x"
    }
  ],
  "info" : {
    "version" : 1,
    "author" : "xcode"
  }
}